^C:\USERS\KAWAGUCHIKOUKI\SOURCE\REPOS\SPATIAL\LIBS\KDJSON\X64\RELEASE\JSON11.OBJ|C:\USERS\KAWAGUCHIKOUKI\SOURCE\REPOS\SPATIAL\LIBS\KDJSON\X64\RELEASE\KDJSON.OBJ|C:\USERS\KAWAGUCHIKOUKI\SOURCE\REPOS\SPATIAL\LIBS\KDJSON\X64\RELEASE\PCH.OBJ
C:\USERS\KAWAGUCHIKOUKI\SOURCE\REPOS\SPATIAL\LIBS\KDJSON\X64\RELEASE\JSON11.OBJ
C:\WINDOWS\SYSTEM32\TZRES.DLL
C:\USERS\KAWAGUCHIKOUKI\SOURCE\REPOS\SPATIAL\LIBS\KDJSON\X64\RELEASE\KDJSON.OBJ
C:\USERS\KAWAGUCHIKOUKI\SOURCE\REPOS\SPATIAL\LIBS\KDJSON\X64\RELEASE\PCH.OBJ
C:\WINDOWS\GLOBALIZATION\SORTING\SORTDEFAULT.NLS
C:\PROGRAM FILES (X86)\MICROSOFT VISUAL STUDIO\2019\COMMUNITY\VC\TOOLS\MSVC\14.29.30037\BIN\HOSTX86\X64\1041\LINKUI.DLL
