^C:\USERS\KAWAGUCHIKOUKI\SOURCE\REPOS\SPATIAL\LIBS\KDJSON\PCH.CPP
/c /ZI /JMC /nologo /W3 /WX- /diagnostics:column /sdl /Od /Oy- /D WIN32 /D _DEBUG /D _LIB /D _UNICODE /D UNICODE /Gm- /EHsc /RTC1 /MDd /GS /fp:precise /permissive- /Zc:wchar_t /Zc:forScope /Zc:inline /Yc"pch.h" /Fp"DEBUG\KDJSON.PCH" /Fo"DEBUG\\" /Fd"C:\USERS\KAWAGUCHIKOUKI\SOURCE\REPOS\SPATIAL\LIBS\KDJSON\DEBUG\KDJSON.PDB" /external:env:EXTERNAL_INCLUDE /external:W3 /Gd /TP /analyze- /FC C:\USERS\KAWAGUCHIKOUKI\SOURCE\REPOS\SPATIAL\LIBS\KDJSON\PCH.CPP
^C:\USERS\KAWAGUCHIKOUKI\SOURCE\REPOS\SPATIAL\LIBS\KDJSON\JSON11.CPP
/c /ZI /JMC /nologo /W3 /WX- /diagnostics:column /sdl /Od /Oy- /D WIN32 /D _DEBUG /D _LIB /D _UNICODE /D UNICODE /Gm- /EHsc /RTC1 /MDd /GS /fp:precise /permissive- /Zc:wchar_t /Zc:forScope /Zc:inline /Yu"pch.h" /Fp"DEBUG\KDJSON.PCH" /Fo"DEBUG\\" /Fd"C:\USERS\KAWAGUCHIKOUKI\SOURCE\REPOS\SPATIAL\LIBS\KDJSON\DEBUG\KDJSON.PDB" /external:env:EXTERNAL_INCLUDE /external:W3 /Gd /TP /analyze- /FC C:\USERS\KAWAGUCHIKOUKI\SOURCE\REPOS\SPATIAL\LIBS\KDJSON\JSON11.CPP
^C:\USERS\KAWAGUCHIKOUKI\SOURCE\REPOS\SPATIAL\LIBS\KDJSON\KDJSON.CPP
/c /ZI /JMC /nologo /W3 /WX- /diagnostics:column /sdl /Od /Oy- /D WIN32 /D _DEBUG /D _LIB /D _UNICODE /D UNICODE /Gm- /EHsc /RTC1 /MDd /GS /fp:precise /permissive- /Zc:wchar_t /Zc:forScope /Zc:inline /Yu"pch.h" /Fp"DEBUG\KDJSON.PCH" /Fo"DEBUG\\" /Fd"C:\USERS\KAWAGUCHIKOUKI\SOURCE\REPOS\SPATIAL\LIBS\KDJSON\DEBUG\KDJSON.PDB" /external:env:EXTERNAL_INCLUDE /external:W3 /Gd /TP /analyze- /FC C:\USERS\KAWAGUCHIKOUKI\SOURCE\REPOS\SPATIAL\LIBS\KDJSON\KDJSON.CPP
